<svg width="22" height="23" viewBox="0 0 22 23">
  <path id="Forma_1" data-name="Forma 1" class="cls-1" d="M18.6,0H9.2a0.471,0.471,0,0,0-.461.481V1.924A0.471,0.471,0,0,0,9.2,2.4h9.4a1.126,1.126,0,0,1,1.1,1.147v15.9A1.126,1.126,0,0,1,18.6,20.6H9.2a0.471,0.471,0,0,0-.461.481v1.442A0.471,0.471,0,0,0,9.2,23h9.4A3.485,3.485,0,0,0,22,19.448V3.552A3.485,3.485,0,0,0,18.6,0Z"/>
  <path class="cls-1" d="M9,17.392l9.1-5.476a0.491,0.491,0,0,0,0-.833L9,5.608a0.445,0.445,0,0,0-.461,0,0.485,0.485,0,0,0-.231.416V8.574H0.46A0.471,0.471,0,0,0,0,9.054v4.891a0.471,0.471,0,0,0,.461.481H8.311v2.549a0.485,0.485,0,0,0,.231.416A0.446,0.446,0,0,0,9,17.392Z"/>
</svg>
